\relax 
\babel@aux{croatian}{}
\pgfsyspdfmark {pgfid1}{7681439}{49000519}
\@writefile{toc}{\contentsline {chapter}{\numberline {1}Uvod}{1}\protected@file@percent }
\@writefile{lof}{\addvspace {10\p@ }}
\@writefile{lot}{\addvspace {10\p@ }}
\@writefile{toc}{\contentsline {chapter}{\numberline {2}Strojno u\IeC {\v c}enje}{2}\protected@file@percent }
\@writefile{lof}{\addvspace {10\p@ }}
\@writefile{lot}{\addvspace {10\p@ }}
\@writefile{toc}{\contentsline {section}{\numberline {2.1}Povijesni pregled}{2}\protected@file@percent }
\@writefile{toc}{\contentsline {section}{\numberline {2.2}Pristupi strojnom u\IeC {\v c}enju}{3}\protected@file@percent }
\@writefile{toc}{\contentsline {subsection}{\numberline {2.2.1}Nenadzirano u\IeC {\v c}enje}{3}\protected@file@percent }
\@writefile{toc}{\contentsline {subsection}{\numberline {2.2.2}Nadzirano u\IeC {\v c}enje}{3}\protected@file@percent }
\@writefile{toc}{\contentsline {subsection}{\numberline {2.2.3}Djelomi\IeC {\v c}no nadzirano u\IeC {\v c}enje}{3}\protected@file@percent }
\@writefile{toc}{\contentsline {subsection}{\numberline {2.2.4}Potporno u\IeC {\v c}enje}{4}\protected@file@percent }
\@writefile{toc}{\contentsline {section}{\numberline {2.3}Obrada prirodnog jezika}{4}\protected@file@percent }
\@writefile{toc}{\contentsline {chapter}{\numberline {3}Kori\IeC {\v s}tene komponente}{6}\protected@file@percent }
\@writefile{lof}{\addvspace {10\p@ }}
\@writefile{lot}{\addvspace {10\p@ }}
\@writefile{toc}{\contentsline {section}{\numberline {3.1}Python}{6}\protected@file@percent }
\@writefile{toc}{\contentsline {section}{\numberline {3.2}SpaCy}{6}\protected@file@percent }
\@writefile{toc}{\contentsline {chapter}{\numberline {4}Implementacija}{8}\protected@file@percent }
\@writefile{lof}{\addvspace {10\p@ }}
\@writefile{lot}{\addvspace {10\p@ }}
\@writefile{toc}{\contentsline {section}{\numberline {4.1}Generiranje modela}{8}\protected@file@percent }
\@writefile{lof}{\contentsline {figure}{\numberline {4.1}{\ignorespaces Grafi\IeC {\v c}ki prikaz pipelinea za treniranje modula SpaCy\relax }}{8}\protected@file@percent }
\providecommand*\caption@xref[2]{\@setref\relax\@undefined{#1}}
\newlabel{fig:spacy-pipeline}{{4.1}{8}}
\@writefile{toc}{\contentsline {section}{\numberline {4.2}Obrada podataka}{9}\protected@file@percent }
\newlabel{chapter:obrada-podataka}{{4.2}{9}}
\@writefile{toc}{\contentsline {chapter}{\numberline {5}Razvijena aplikacija}{10}\protected@file@percent }
\@writefile{lof}{\addvspace {10\p@ }}
\@writefile{lot}{\addvspace {10\p@ }}
\@writefile{lof}{\contentsline {figure}{\numberline {5.1}{\ignorespaces Korisni\IeC {\v c}ko su\IeC {\v c}elje otvorene aplikacije\relax }}{10}\protected@file@percent }
\newlabel{fig:app-UI}{{5.1}{10}}
\@writefile{lof}{\contentsline {figure}{\numberline {5.2}{\ignorespaces Dijalog za odabir datoteke gumba \IeC {\quotedblbase }Browse\IeC {\textquotedblleft }\relax }}{10}\protected@file@percent }
\newlabel{fig:browse-dialog}{{5.2}{10}}
\@writefile{lof}{\contentsline {figure}{\numberline {5.3}{\ignorespaces Isje\IeC {\v c}ak iz izvornog dokumenta\relax }}{11}\protected@file@percent }
\newlabel{fig:original-resume-extract}{{5.3}{11}}
\@writefile{lof}{\contentsline {figure}{\numberline {5.4}{\ignorespaces Prikaz rezultata dobivenih na temelju dokumenta iz slike \ref  {fig:original-resume-extract}\relax }}{11}\protected@file@percent }
\newlabel{fig:extraction-results}{{5.4}{11}}
\@writefile{lof}{\contentsline {figure}{\numberline {5.5}{\ignorespaces Isje\IeC {\v c}ak prikaza rezultata u web pregledniku\relax }}{12}\protected@file@percent }
\newlabel{fig:rendered-results}{{5.5}{12}}
\@writefile{lof}{\contentsline {figure}{\numberline {5.6}{\ignorespaces Izvorni kod dijela pozadinske logike zadu\IeC {\v z}en za prepoznavanje i kategorizaciju\relax }}{13}\protected@file@percent }
\newlabel{fig:eval-method}{{5.6}{13}}
\@writefile{toc}{\contentsline {chapter}{\numberline {6}Rezultati}{14}\protected@file@percent }
\@writefile{lof}{\addvspace {10\p@ }}
\@writefile{lot}{\addvspace {10\p@ }}
\@writefile{lof}{\contentsline {figure}{\numberline {6.1}{\ignorespaces Prikaz to\IeC {\v c}nosti kona\IeC {\v c}nog modela na dokumentima u skupu za provjeru\relax }}{14}\protected@file@percent }
\newlabel{fig:validation-set-accuracy}{{6.1}{14}}
\@writefile{lof}{\contentsline {figure}{\numberline {6.2}{\ignorespaces \relax }}{15}\protected@file@percent }
\newlabel{fig:model-output-p1}{{6.2}{15}}
\@writefile{lof}{\contentsline {figure}{\numberline {6.3}{\ignorespaces \relax }}{16}\protected@file@percent }
\newlabel{fig:model-output-p2}{{6.3}{16}}
\@writefile{lof}{\contentsline {figure}{\numberline {6.4}{\ignorespaces \relax }}{16}\protected@file@percent }
\newlabel{fig:model-output-p3}{{6.4}{16}}
\@writefile{toc}{\contentsline {chapter}{\numberline {7}Kratka analiza to\IeC {\v c}nosti modela}{17}\protected@file@percent }
\@writefile{lof}{\addvspace {10\p@ }}
\@writefile{lot}{\addvspace {10\p@ }}
\newlabel{chapter:analiza-tocnosti}{{7}{17}}
\@writefile{lof}{\contentsline {figure}{\numberline {7.1}{\ignorespaces Ovisnost kvalitete predvi\IeC {\dj }anja modela o broju epoha treniranja\relax }}{17}\protected@file@percent }
\newlabel{fig:models-accuracy-dropoff}{{7.1}{17}}
\@writefile{lof}{\contentsline {figure}{\numberline {7.2}{\ignorespaces Ovisnost kvalitete predvi\IeC {\dj }anja modela o broju epoha treniranja\relax }}{18}\protected@file@percent }
\newlabel{fig:models-accuracy-epochs}{{7.2}{18}}
\citation{*}
\bibdata{literatura}
\@writefile{toc}{\contentsline {chapter}{\numberline {8}Zaklju\IeC {\v c}ak}{19}\protected@file@percent }
\@writefile{lof}{\addvspace {10\p@ }}
\@writefile{lot}{\addvspace {10\p@ }}
\bibcite{briefhistoryai}{{1}{2005}{{Bruce}}{{}}}
\bibcite{nlppastpresentfuture}{{2}{2013}{{Deborah}}{{}}}
\bibcite{nlpwithpython}{{3}{2009}{{Steven, Bird}}{{}}}
\bibcite{mloverview}{{4}{2016}{{Venkatesan, Selvam}}{{}}}
\bibcite{morphologicalanalysis}{{5}{2002}{{Zeynep}}{{}}}
\bibstyle{fer}
\@writefile{toc}{\contentsline {chapter}{Literatura}{20}\protected@file@percent }
